# Exported from Wings 3D 1.5.3
mtllib Divider_Curved.mtl
o Divider_Curved
#20 vertices, 18 faces
v -0.51435722 -0.56970680 -2.56563524
v -0.51435722 -0.34410680 -2.56563524
v -0.29568522 -0.56970680 -2.56563524
v -0.29568522 -0.34410680 -2.56563524
v -0.65811310 -0.56970680 -2.92151869
v -0.65811310 -0.34410680 -2.92151869
v -0.43944110 -0.34410680 -2.92151869
v -0.43944110 -0.56970680 -2.92151869
v -0.63417929 -0.53144095 -2.95699922
v -0.63417929 -0.38237264 -2.95699922
v -0.49203898 -0.38237264 -2.95699922
v -0.49203898 -0.53144095 -2.95699922
v -0.51435722 -0.56970680 -1.97983084
v -0.51435722 -0.34410680 -1.97983084
v -0.29568522 -0.56970680 -1.97983084
v -0.29568522 -0.34410680 -1.97983084
v -0.46816162 -0.39030240 -1.93363524
v -0.46816162 -0.52351119 -1.93363524
v -0.34188082 -0.52351119 -1.93363524
v -0.34188082 -0.39030240 -1.93363524
vn -0.68765754 -0.71362961 0.13364091
vn -0.68765754 0.71362961 0.13364091
vn 0.68765754 -0.71362961 -0.13364091
vn 0.68765754 0.71362961 -0.13364091
vn -0.67601606 -0.64664128 -0.35335158
vn -0.67601606 0.64664128 -0.35335158
vn 0.50156238 0.56684788 -0.65354316
vn 0.50156238 -0.56684788 -0.65354316
vn -0.32756538 -0.26865157 -0.90582960
vn -0.32756538 0.26865157 -0.90582960
vn 0.20640696 0.25095388 -0.94573692
vn 0.20640696 -0.25095388 -0.94573692
vn -0.61013148 -0.61013148 0.50544947
vn -0.61013148 0.61013148 0.50544947
vn 0.61013148 -0.61013148 0.50544947
vn 0.61013148 0.61013148 0.50544947
vn -0.27059805 0.27059805 0.92387953
vn -0.27059805 -0.27059805 0.92387953
vn 0.27059805 -0.27059805 0.92387953
vn 0.27059805 0.27059805 0.92387953
g Divider_Curved_default
usemtl default
s 1
f 1//1 3//3 15//15 13//13
f 1//1 5//5 8//8 3//3
f 2//2 6//6 5//5 1//1
f 3//3 4//4 16//16 15//15
f 3//3 8//8 7//7 4//4
f 4//4 7//7 6//6 2//2
f 6//6 7//7 11//11 10//10
f 7//7 8//8 12//12 11//11
f 8//8 5//5 9//9 12//12
f 10//10 9//9 5//5 6//6
f 10//10 11//11 12//12 9//9
f 13//13 14//14 2//2 1//1
f 13//13 15//15 19//19 18//18
f 14//14 16//16 4//4 2//2
f 14//14 17//17 20//20 16//16
f 15//15 16//16 20//20 19//19
f 18//18 17//17 14//14 13//13
f 18//18 19//19 20//20 17//17
